[
{
  "pk": 1, 
  "model": "directory.containertype", 
  "fields": {
    "sort_order": 9, 
    "name": "20 Flat Rack"
  }
},
{
  "pk": 2, 
  "model": "directory.containertype", 
  "fields": {
    "sort_order": 11, 
    "name": "20 Flexitank"
  }
},
{
  "pk": 3, 
  "model": "directory.containertype", 
  "fields": {
    "sort_order": 13, 
    "name": "20 Open Side"
  }
},
{
  "pk": 4, 
  "model": "directory.containertype", 
  "fields": {
    "sort_order": 7, 
    "name": "20 Open top"
  }
},
{
  "pk": 5, 
  "model": "directory.containertype", 
  "fields": {
    "sort_order": 4, 
    "name": "20 Reefer"
  }
},
{
  "pk": 6, 
  "model": "directory.containertype", 
  "fields": {
    "sort_order": 1, 
    "name": "20 Standard"
  }
},
{
  "pk": 7, 
  "model": "directory.containertype", 
  "fields": {
    "sort_order": 12, 
    "name": "20 Tank Tainer"
  }
},
{
  "pk": 8, 
  "model": "directory.containertype", 
  "fields": {
    "sort_order": 10, 
    "name": "40 Flat Rack"
  }
},
{
  "pk": 10, 
  "model": "directory.containertype", 
  "fields": {
    "sort_order": 14, 
    "name": "40 Open Side"
  }
},
{
  "pk": 11, 
  "model": "directory.containertype", 
  "fields": {
    "sort_order": 8, 
    "name": "40 Open Top"
  }
},
{
  "pk": 12, 
  "model": "directory.containertype", 
  "fields": {
    "sort_order": 5, 
    "name": "40 Reefer"
  }
},
{
  "pk": 13, 
  "model": "directory.containertype", 
  "fields": {
    "sort_order": 2, 
    "name": "40 Standard"
  }
},
{
  "pk": 16, 
  "model": "directory.containertype", 
  "fields": {
    "sort_order": 6, 
    "name": "40 Reefer H/Cube"
  }
},
{
  "pk": 17, 
  "model": "directory.containertype", 
  "fields": {
    "sort_order": 3, 
    "name": "40 H/Cube"
  }
},
{
  "pk": 19, 
  "model": "directory.containertype", 
  "fields": {
    "sort_order": 15, 
    "name": "No aplica"
  }
}
]
