[
{
  "pk": 1, 
  "model": "directory.coverage", 
  "fields": {
    "from_regions": [
      16, 
      2, 
      3, 
      4, 
      5
    ], 
    "name": "Norte", 
    "to_regions": [
      16, 
      2, 
      3, 
      4, 
      5
    ]
  }
},
{
  "pk": 2, 
  "model": "directory.coverage", 
  "fields": {
    "from_regions": [
      14, 
      6
    ], 
    "name": "Centro - Norte", 
    "to_regions": [
      16, 
      2, 
      3, 
      4, 
      5
    ]
  }
},
{
  "pk": 3, 
  "model": "directory.coverage", 
  "fields": {
    "from_regions": [
      14
    ], 
    "name": "RM-Metropolitana de Santiago", 
    "to_regions": [
      14
    ]
  }
},
{
  "pk": 4, 
  "model": "directory.coverage", 
  "fields": {
    "from_regions": [
      14, 
      6
    ], 
    "name": "Centro", 
    "to_regions": [
      6
    ]
  }
},
{
  "pk": 5, 
  "model": "directory.coverage", 
  "fields": {
    "from_regions": [
      14, 
      6
    ], 
    "name": "Centro - Sur", 
    "to_regions": [
      14, 
      6, 
      7, 
      8, 
      9
    ]
  }
},
{
  "pk": 6, 
  "model": "directory.coverage", 
  "fields": {
    "from_regions": [
      7, 
      8, 
      9
    ], 
    "name": "Sur", 
    "to_regions": [
      7, 
      8, 
      9
    ]
  }
},
{
  "pk": 7, 
  "model": "directory.coverage", 
  "fields": {
    "from_regions": [
      10, 
      15, 
      11, 
      12, 
      13
    ], 
    "name": "Sur Extremo", 
    "to_regions": [
      10, 
      15, 
      11, 
      12, 
      13
    ]
  }
},
{
  "pk": 8, 
  "model": "directory.coverage", 
  "fields": {
    "from_regions": [
      14, 
      6
    ], 
    "name": "Centro - Sur Extremo", 
    "to_regions": [
      10, 
      15, 
      11, 
      12, 
      13
    ]
  }
}
]
